…
Observations are the level of items in orders by user. There are user /
order variables – user ID, order ID, order day, and order hour. There
are also item variables – name, aisle, department, and some numeric
codes.

How many aisles, and which are most items from?

``` r
instacart %>% 
    count(aisle) %>% 
    arrange(desc(n))
```

    ## # A tibble: 134 x 2
    ##    aisle                              n
    ##    <chr>                          <int>
    ##  1 fresh vegetables              150609
    ##  2 fresh fruits                  150473
    ##  3 packaged vegetables fruits     78493
    ##  4 yogurt                         55240
    ##  5 packaged cheese                41699
    ##  6 water seltzer sparkling water  36617
    ##  7 milk                           32644
    ##  8 chips pretzels                 31269
    ##  9 soy lactosefree                26240
    ## 10 bread                          23635
    ## # … with 124 more rows
…
    ## Parsed with column specification:
    ## cols(
    ##   .default = col_double(),
    ##   day = col_character()
    ## )

    ## See spec(...) for full column specifications.

``` r
accel
```

    ## # A tibble: 50,400 x 8
    ## # Groups:   week, day [35]
    ##    day_id week  weekend_vs_weekd… day    minute number_of_activ… weekend weekday
    ##    <fct>  <chr> <fct>             <fct>   <dbl>            <dbl> <lgl>   <lgl>  
    ##  1 2      1     weekday           Monday      1                1 FALSE   TRUE   
    ##  2 2      1     weekday           Monday      2                1 FALSE   TRUE   
    ##  3 2      1     weekday           Monday      3                1 FALSE   TRUE   
    ##  4 2      1     weekday           Monday      4                1 FALSE   TRUE   
    ##  5 2      1     weekday           Monday      5                1 FALSE   TRUE   
    ##  6 2      1     weekday           Monday      6                1 FALSE   TRUE   
    ##  7 2      1     weekday           Monday      7                1 FALSE   TRUE   
    ##  8 2      1     weekday           Monday      8                1 FALSE   TRUE   
    ##  9 2      1     weekday           Monday      9                1 FALSE   TRUE   
    ## 10 2      1     weekday           Monday     10                1 FALSE   TRUE   
    ## # … with 50,390 more rows
…
Trend: People are having significantly less activity on Saturday,
especially on week 4 and week 5.

## Single-panel plot that shows the 24-hour activity time courses for each day and use color to indicate day of the week.

``` r
accel
```

    ## # A tibble: 50,400 x 8
    ## # Groups:   week, day [35]
    ##    day_id week  weekend_vs_weekd… day    minute number_of_activ… weekend weekday
    ##    <fct>  <chr> <fct>             <fct>   <dbl>            <dbl> <lgl>   <lgl>  
    ##  1 2      1     weekday           Monday      1                1 FALSE   TRUE   
    ##  2 2      1     weekday           Monday      2                1 FALSE   TRUE   
    ##  3 2      1     weekday           Monday      3                1 FALSE   TRUE   
    ##  4 2      1     weekday           Monday      4                1 FALSE   TRUE   
    ##  5 2      1     weekday           Monday      5                1 FALSE   TRUE   
    ##  6 2      1     weekday           Monday      6                1 FALSE   TRUE   
    ##  7 2      1     weekday           Monday      7                1 FALSE   TRUE   
    ##  8 2      1     weekday           Monday      8                1 FALSE   TRUE   
    ##  9 2      1     weekday           Monday      9                1 FALSE   TRUE   
    ## 10 2      1     weekday           Monday     10                1 FALSE   TRUE   
    ## # … with 50,390 more rows
…
This dataset has 2595176 rows and 9 columns. It starts from 1981-01-01
to 2010-12-31, containing the weather infomation of these days,
including prcp, snow, snwd, tmax, and tmin. In tmax and tmin, the
proportion of missing value is up to 43%, which is very high.

## Snow data

``` r
nynoaa_tidy %>% 
  count(snow, na.rm = T) %>% 
  mutate(rank = min_rank(desc(n)))
```

    ## # A tibble: 282 x 4
    ##     snow na.rm       n  rank
    ##    <dbl> <lgl>   <int> <int>
    ##  1   -13 TRUE        1   238
    ##  2     0 TRUE  2008508     1
    ##  3     3 TRUE     8790    10
    ##  4     5 TRUE     9748     8
    ##  5     8 TRUE     9962     7
    ##  6    10 TRUE     5106    12
    ##  7    13 TRUE    23095     4
    ##  8    15 TRUE     3672    16
    ##  9    18 TRUE     3226    17
    ## 10    20 TRUE     4797    13
    ## # … with 272 more rows
…
